<?xml version="1.0" encoding="UTF-8"?>
<svg width="183px" height="32px" viewBox="0 0 183 32" version="1.1" xmlns="http://www.w3.org/2000/svg" xmlns:xlink="http://www.w3.org/1999/xlink">
    <!-- Generator: Sketch 41.2 (35397) - http://www.bohemiancoding.com/sketch -->
    <title>Logo</title>
    <desc>Created with Sketch.</desc>
    <defs>
        <polygon id="path-1" points="0.063490709 7.1358885 7.16738068 7.1358885 7.16738068 0.131880139 0.063490709 0.131880139"></polygon>
        <polygon id="path-3" points="38.6369377 0.0410313589 0.194856968 0.0410313589 0.194856968 30.6047554 38.6369377 30.6047554 38.6369377 0.0410313589"></polygon>
    </defs>
    <g id="Symbols" stroke="none" stroke-width="1" fill="none" fill-rule="evenodd">
        <g id="Header" transform="translate(-113.000000, -19.000000)">
            <g id="Logo" transform="translate(113.000000, 19.000000)">
                <path d="M77.5212609,14.23583 C79.0161337,14.23583 79.8895225,13.3460739 79.8895225,12.185154 L79.8895225,12.1463526 C79.8895225,10.8114955 78.95752,10.0956767 77.4630946,10.0956767 L75.1529993,10.0956767 L75.1529993,14.23583 L77.5212609,14.23583 Z M72.1641484,7.40633868 L77.7158941,7.40633868 C80.9570971,7.40633868 82.9173,9.32187875 82.9173,12.0883735 L82.9173,12.1271749 C82.9173,15.2611679 80.4716325,16.8863666 77.424168,16.8863666 L75.1529993,16.8863666 L75.1529993,20.9493631 L72.1641484,20.9493631 L72.1641484,7.40633868 Z" id="Fill-1" fill="#020000"></path>
                <path d="M90.9923428,15.2807024 L89.187399,10.8890091 L87.3824553,15.2807024 L90.9923428,15.2807024 Z M87.8477853,7.30946899 L90.6044186,7.30946899 L96.4268611,20.9492739 L93.3019907,20.9492739 L92.0599174,17.9116153 L86.3144333,17.9116153 L85.0723599,20.9492739 L82.0248954,20.9492739 L87.8477853,7.30946899 Z" id="Fill-3" fill="#020000"></path>
                <polygon id="Fill-5" fill="#020000" points="98.9705164 10.1537449 94.8362377 10.1537449 94.8362377 7.40642787 106.093646 7.40642787 106.093646 10.1537449 101.959815 10.1537449 101.959815 20.9494523 98.9705164 20.9494523"></polygon>
                <polygon id="Fill-7" fill="#020000" points="107.278179 10.1537449 103.144348 10.1537449 103.144348 7.40642787 114.401756 7.40642787 114.401756 10.1537449 110.267478 10.1537449 110.267478 20.9494523 107.278179 20.9494523"></polygon>
                <polygon id="Fill-9" fill="#020000" points="115.916182 7.40633868 126.164182 7.40633868 126.164182 10.0568753 118.885793 10.0568753 118.885793 12.8041923 125.290793 12.8041923 125.290793 15.4547289 118.885793 15.4547289 118.885793 18.2988265 126.261275 18.2988265 126.261275 20.9493631 115.916182 20.9493631"></polygon>
                <path d="M134.938607,13.9845129 C136.394106,13.9845129 137.228568,13.210715 137.228568,12.0689728 L137.228568,12.0301714 C137.228568,10.7532934 136.33594,10.0954537 134.880441,10.0954537 L131.910382,10.0954537 L131.910382,13.9845129 L134.938607,13.9845129 Z M128.921531,7.40611568 L135.132793,7.40611568 C136.860331,7.40611568 138.199497,7.89001812 139.092125,8.78022021 C139.849182,9.53439443 140.256793,10.5985338 140.256793,11.8754118 L140.256793,11.9142132 C140.256793,14.1004711 139.072438,15.4741296 137.345348,16.1123456 L140.664404,20.9495861 L137.170402,20.9495861 L134.258957,16.6154258 L131.910382,16.6154258 L131.910382,20.9495861 L128.921531,20.9495861 L128.921531,7.40611568 Z" id="Fill-11" fill="#020000"></path>
                <path d="M142.023705,18.9760223 L143.789722,16.8673672 C145.013003,17.8730815 146.294003,18.5117436 147.846595,18.5117436 C149.069429,18.5117436 149.807245,18.0278411 149.807245,17.2348655 L149.807245,17.1960641 C149.807245,16.4414439 149.34102,16.054322 147.070299,15.474085 C144.333353,14.7774439 142.567336,14.0232697 142.567336,11.3339317 L142.567336,11.2951303 C142.567336,8.8381547 144.547226,7.2129561 147.322651,7.2129561 C149.302541,7.2129561 150.991152,7.83199443 152.368798,8.9344892 L150.816206,11.1791721 C149.613059,10.3469491 148.428705,9.84431498 147.283724,9.84431498 C146.138297,9.84431498 145.536947,10.3665728 145.536947,11.0239666 L145.536947,11.0627679 C145.536947,11.95297 146.119057,12.2428655 148.467632,12.8431721 C151.223817,13.5589909 152.776409,14.5455275 152.776409,16.9057226 L152.776409,16.944524 C152.776409,19.633862 150.719113,21.1426564 147.788429,21.1426564 C145.730685,21.1426564 143.65415,20.4268376 142.023705,18.9760223" id="Fill-13" fill="#020000"></path>
                <path d="M165.607438,14.2164293 L165.607438,14.1780739 C165.607438,11.8562341 163.89914,9.92151638 161.492399,9.92151638 C159.085658,9.92151638 157.416287,11.8174328 157.416287,14.1392725 L157.416287,14.1780739 C157.416287,16.4994676 159.124585,18.4341854 161.531326,18.4341854 C163.938067,18.4341854 165.607438,16.538269 165.607438,14.2164293 M154.291416,14.2164293 L154.291416,14.1780739 C154.291416,10.327816 157.338881,7.1741993 161.531326,7.1741993 C165.723771,7.1741993 168.732309,10.2890146 168.732309,14.1392725 L168.732309,14.1780739 C168.732309,18.0278857 165.684844,21.1815024 161.492399,21.1815024 C157.299954,21.1815024 154.291416,18.0666871 154.291416,14.2164293" id="Fill-15" fill="#020000"></path>
                <polygon id="Fill-17" fill="#020000" points="170.615688 7.40633868 173.371873 7.40633868 179.738394 15.7450704 179.738394 7.40633868 182.688318 7.40633868 182.688318 20.9493631 180.146005 20.9493631 173.566059 12.3399136 173.566059 20.9493631 170.615688 20.9493631"></polygon>
                <polygon id="Fill-19" fill="#E52822" points="99.177633 24.2911443 100.371384 24.2911443 100.371384 27.1062523 103.612587 27.1062523 103.612587 24.2911443 104.806337 24.2911443 104.806337 31.0626564 103.612587 31.0626564 103.612587 28.208747 100.371384 28.208747 100.371384 31.0626564 99.177633 31.0626564"></polygon>
                <g id="Group-23" transform="translate(111.410758, 24.042771)">
                    <mask id="mask-2" fill="white">
                        <use xlink:href="#path-1"></use>
                    </mask>
                    <g id="Clip-22"></g>
                    <path d="M5.91546381,3.65344111 L5.91546381,3.63426341 C5.91546381,2.31858397 4.95482567,1.22545505 3.60581589,1.22545505 C2.25680611,1.22545505 1.31540758,2.29896028 1.31540758,3.61463972 L1.31540758,3.63426341 C1.31540758,4.94949686 2.27604572,6.03325993 3.6250555,6.03325993 C4.97406528,6.03325993 5.91546381,4.96912056 5.91546381,3.65344111 M0.063490709,3.65344111 L0.063490709,3.63426341 C0.063490709,1.72853519 1.53867653,0.131880139 3.6250555,0.131880139 C5.71143447,0.131880139 7.16738068,1.70935749 7.16738068,3.61463972 L7.16738068,3.63426341 C7.16738068,5.53954564 5.69219487,7.1362007 3.60581589,7.1362007 C1.51943692,7.1362007 0.063490709,5.55916934 0.063490709,3.65344111" id="Fill-21" fill="#E52822" mask="url(#mask-2)"></path>
                </g>
                <polygon id="Fill-24" fill="#E52822" points="125.197772 24.2911443 126.468929 24.2911443 128.536068 27.4929282 130.603207 24.2911443 131.874811 24.2911443 131.874811 31.0626564 130.681061 31.0626564 130.681061 26.2062383 128.536068 29.3986564 128.497141 29.3986564 126.371836 26.225862 126.371836 31.0626564 125.197772 31.0626564"></polygon>
                <polygon id="Fill-26" fill="#E52822" points="139.037628 24.2911443 144.074379 24.2911443 144.074379 25.3552836 140.231379 25.3552836 140.231379 27.1156181 143.637684 27.1156181 143.637684 28.1797575 140.231379 28.1797575 140.231379 29.9985171 144.122701 29.9985171 144.122701 31.0626564 139.037628 31.0626564"></polygon>
                <path d="M150.499603,30.0759861 L151.217732,29.2245854 C151.8683,29.7856446 152.527815,30.1045296 153.362725,30.1045296 C154.100542,30.1045296 154.566319,29.7566551 154.566319,29.2535749 L154.566319,29.2339512 C154.566319,28.7504948 154.29428,28.4891429 153.03252,28.1992474 C151.586864,27.8509268 150.771642,27.4254495 150.771642,26.177561 L150.771642,26.1579373 C150.771642,24.9970174 151.741676,24.19423 153.091133,24.19423 C154.080855,24.19423 154.866994,24.4939373 155.55604,25.0456307 L154.915317,25.9451986 C154.304123,25.4907317 153.69293,25.2490035 153.071446,25.2490035 C152.373004,25.2490035 151.964945,25.6066899 151.964945,26.0517909 L151.964945,26.0709686 C151.964945,26.5932265 152.275911,26.8255889 153.585994,27.135108 C155.022253,27.4834286 155.76007,27.9958746 155.76007,29.118439 L155.76007,29.1376167 C155.76007,30.4046829 154.760057,31.1593031 153.333642,31.1593031 C152.295598,31.1593031 151.314825,30.8011707 150.499603,30.0759861" id="Fill-28" fill="#E52822"></path>
                <polygon id="Fill-30" fill="#E52822" points="10.7072002 23.5738091 23.4612711 11.5721366 18.0446501 6.92845714 0.000134229829 23.5738091 2.85788729 23.5738091 2.85788729 31.0098509 13.5649533 31.0098509 13.5649533 23.5738091"></polygon>
                <g id="Group-34" transform="translate(23.266504, 0.405140)">
                    <mask id="mask-4" fill="white">
                        <use xlink:href="#path-3"></use>
                    </mask>
                    <g id="Clip-33"></g>
                    <polygon id="Fill-32" fill="#E52822" mask="url(#mask-4)" points="11.6831406 0.0408529617 0.194856968 11.1670411 14.0675098 23.1687136 11.2097567 23.1687136 11.2097567 30.6047554 35.7791846 30.6047554 35.7791846 23.1687136 38.6369377 23.1687136"></polygon>
                </g>
                <path d="M20.0333993,24.4793087 L20.0333993,31.0099847 L27.535057,31.0099847 L27.535057,24.4793087 C25.7672501,22.6993505 21.7251425,22.8197686 20.0333993,24.4793087" id="Fill-35" fill="#E52822"></path>
            </g>
        </g>
    </g>
</svg>