<?xml version="1.0" encoding="UTF-8"?>
<svg width="32px" height="32px" viewBox="0 0 32 32" version="1.1" xmlns="http://www.w3.org/2000/svg" xmlns:xlink="http://www.w3.org/1999/xlink">
    <!-- Generator: Sketch 41.2 (35397) - http://www.bohemiancoding.com/sketch -->
    <title>Map/City Marker</title>
    <desc>Created with Sketch.</desc>
    <defs></defs>
    <g id="Desktop" stroke="none" stroke-width="1" fill="none" fill-rule="evenodd">
        <g id="Locations---Map-(Zoomed-Out)" transform="translate(-598.000000, -160.000000)">
            <g id="Zoom---1">
                <g id="Map/City-Marker" transform="translate(598.000000, 160.000000)">
                    <g id="Page-1">
                        <circle id="Oval-2" fill="#FFFFFF" cx="16" cy="16" r="16"></circle>
                        <path d="M15.8574423,0.000495774648 C7.03648451,0.0638197183 -0.0627830986,7.26584789 0.000315492958,16.0868056 C0.0406535211,21.7136225 2.98623099,26.6391437 7.40335775,29.4524394 L7.24042817,6.72996056 L17.6489915,6.65536901 C23.7262873,6.61187606 27.4279211,10.1886648 27.4653296,15.3927211 L27.4657803,15.4657352 C27.5081465,21.3609465 22.9447662,24.4509746 17.230738,24.4919887 L12.9729352,24.5224113 L13.0240901,31.6714817 C14.0160901,31.8567211 15.0398648,31.9511437 16.0866254,31.943707 C24.9075831,31.8803831 32.0070761,24.6783549 31.9435268,15.8573972 C31.8804282,7.03666479 24.6784,-0.062828169 15.8574423,0.000495774648" id="Fill-1" fill="#E52822"></path>
                        <polygon id="Fill-4" fill="#E52822" points="12.9307268 10.8526197 12.9983324 20.2779718 15.2257127 20.2621972 15.1991211 16.5542535 18.553938 16.5301408 18.5805296 20.2378592 20.8079099 20.2220845 20.7403042 10.796507 18.5129239 10.812507 18.5388394 14.424 15.1840225 14.4481127 15.158107 10.8366197"></polygon>
                    </g>
                </g>
            </g>
        </g>
    </g>
</svg>